\relax 
\providecommand\hyper@newdestlabel[2]{}
\providecommand\HyperFirstAtBeginDocument{\AtBeginDocument}
\HyperFirstAtBeginDocument{\ifx\hyper@anchor\@undefined
\global\let\oldcontentsline\contentsline
\gdef\contentsline#1#2#3#4{\oldcontentsline{#1}{#2}{#3}}
\global\let\oldnewlabel\newlabel
\gdef\newlabel#1#2{\newlabelxx{#1}#2}
\gdef\newlabelxx#1#2#3#4#5#6{\oldnewlabel{#1}{{#2}{#3}}}
\AtEndDocument{\ifx\hyper@anchor\@undefined
\let\contentsline\oldcontentsline
\let\newlabel\oldnewlabel
\fi}
\fi}
\global\let\hyper@last\relax 
\gdef\HyperFirstAtBeginDocument#1{#1}
\providecommand\HyField@AuxAddToFields[1]{}
\providecommand\HyField@AuxAddToCoFields[2]{}
\catcode `:\active 
\catcode `;\active 
\catcode `!\active 
\catcode `?\active 
\babel@aux{french}{}
\@writefile{toc}{\contentsline {chapter}{\numberline {1}Notice utilisateur}{3}{chapter.1}\protected@file@percent }
\@writefile{lof}{\addvspace {10\p@ }}
\@writefile{lot}{\addvspace {10\p@ }}
\@writefile{toc}{\contentsline {section}{\numberline {1.1}pr\IeC {\'e}sentation}{3}{section.1.1}\protected@file@percent }
\@writefile{toc}{\contentsline {chapter}{\numberline {2}Structure du code }{4}{chapter.2}\protected@file@percent }
\@writefile{lof}{\addvspace {10\p@ }}
\@writefile{lot}{\addvspace {10\p@ }}
\@writefile{toc}{\contentsline {section}{\numberline {2.1}Initialisation du jeu}{4}{section.2.1}\protected@file@percent }
\@writefile{toc}{\contentsline {section}{\numberline {2.2}Cr\IeC {\'e}ation des \IeC {\'e}l\IeC {\'e}ments de jeu}{4}{section.2.2}\protected@file@percent }
\@writefile{toc}{\contentsline {section}{\numberline {2.3}D\IeC {\'e}placement du joueur}{4}{section.2.3}\protected@file@percent }
\@writefile{toc}{\contentsline {section}{\numberline {2.4}G\IeC {\'e}n\IeC {\'e}rer des ennemis}{5}{section.2.4}\protected@file@percent }
\@writefile{lof}{\contentsline {figure}{\numberline {2.1}{\ignorespaces Code cr\IeC {\'e}ation des ennemis }}{5}{figure.2.1}\protected@file@percent }
\@writefile{toc}{\contentsline {section}{\numberline {2.5}D\IeC {\'e}placer les ennemis et collision avec le joueur}{6}{section.2.5}\protected@file@percent }
\@writefile{lof}{\contentsline {figure}{\numberline {2.2}{\ignorespaces Code d\IeC {\'e}placements des ennemis et collision avec le joueur }}{6}{figure.2.2}\protected@file@percent }
\@writefile{toc}{\contentsline {section}{\numberline {2.6}Cr\IeC {\'e}ation et d\IeC {\'e}placement des tirs}{7}{section.2.6}\protected@file@percent }
\@writefile{lof}{\contentsline {figure}{\numberline {2.3}{\ignorespaces Code gestion des tirs }}{7}{figure.2.3}\protected@file@percent }
\@writefile{toc}{\contentsline {section}{\numberline {2.7}Gestion missiles}{8}{section.2.7}\protected@file@percent }
\@writefile{lof}{\contentsline {figure}{\numberline {2.4}{\ignorespaces Code gestion recharge du missile }}{8}{figure.2.4}\protected@file@percent }
\@writefile{lof}{\contentsline {figure}{\numberline {2.5}{\ignorespaces Code cr\IeC {\'e}ation du missile }}{9}{figure.2.5}\protected@file@percent }
\@writefile{toc}{\contentsline {section}{\numberline {2.8}Tuer les ennemis}{9}{section.2.8}\protected@file@percent }
\@writefile{toc}{\contentsline {section}{\numberline {2.9}Gestion du jeu}{9}{section.2.9}\protected@file@percent }
\@writefile{toc}{\contentsline {section}{\numberline {2.10}GameOver}{9}{section.2.10}\protected@file@percent }
\@writefile{toc}{\contentsline {chapter}{\numberline {3}Choix de d\IeC {\'e}veloppement}{10}{chapter.3}\protected@file@percent }
\@writefile{lof}{\addvspace {10\p@ }}
\@writefile{lot}{\addvspace {10\p@ }}
\@writefile{toc}{\contentsline {chapter}{\numberline {4}R\IeC {\'e}f\IeC {\'e}rence}{11}{chapter.4}\protected@file@percent }
\@writefile{lof}{\addvspace {10\p@ }}
\@writefile{lot}{\addvspace {10\p@ }}
